{
    "name": "L10nUrl",
    "properties":{
        "url": {
            "type": "string",
            "required": false,
            "max": 250
        },
        "identifier":{
            "type": "string",
            "required": false,
            "max": 150
        }
    },
    "relations":{
        "title":{
            "type": "embedsOne",
            "model": "L10nBaseString",
            "default": {},
            "required": false
        },
        "urlL10n":{
            "type": "embedsOne",
            "model": "L10nBaseString",
            "default": {},
            "required": false
        }
    }
}
