{
    "name": "TestModelL10nFile",
    "base": "django.db.models.Model",
    "properties":{},
    "relations":{
        "mainImg":{
            "type": "hasOne",
            "model": "drf_lbcms.models.L10nFile"
        }
    },
    "viewset": {
        "base": [
            "drf_lbcms.mixins.L10nFileMixin",
            "rest_framework.viewsets.ModelViewSet"
        ]
    }
}
